<svg width="15" height="15" viewBox="0 0 15 15" fill="none" xmlns="http://www.w3.org/2000/svg">
<path fill-rule="evenodd" clip-rule="evenodd" d="M6.58253 0.611455C6.92166 -0.203818 8.07834 -0.203818 8.41747 0.611455L9.99351 4.40168L14.0843 4.72946C14.9654 4.79986 15.3227 5.899 14.6512 6.47431L11.5347 9.1442L12.4863 13.1358C12.6914 13.9957 11.7565 14.6747 11.0026 14.2145L7.5 12.0752L3.99743 14.2145C3.24347 14.6747 2.30859 13.995 2.51374 13.1358L3.46527 9.1442L0.348756 6.47431C-0.32269 5.899 0.0346074 4.79986 0.915739 4.72946L5.00649 4.40168L6.58253 0.612212V0.611455Z" fill="black"/>
</svg>
